2020-06-03 06:31:52,693 - [MAIN function: client.main]
INFO: > [Client.main] This is the array to sort (client view): [19, 14, 15, 8, 3, 0]

2020-06-03 06:31:54,928 - [MAIN function: client.main]
INFO: [ServerProxy.sort] Connection problems. Check whether the server is down !!!

2020-06-03 06:31:55,020 - [MAIN function: client.main]
INFO: [ServerProxy.sort] Exception received: [WinError 10061] No se puede establecer una conexión ya que el equipo de destino denegó expresamente dicha conexión

2020-06-03 06:31:55,169 - [MAIN function: client.main]
INFO: > [Client.main] The sorted array returned None. Check whether the server is down !!!

